sha_256_tb.vcd
$date
	Sun Feb  4 21:10:45 2018
$end
$version
	Icarus Verilog
$end
$timescale
	10ps
$end
$scope module sha_256_tb $end
$var wire 256 ! hashed [255:0] $end
$var reg 1 " clk $end
$var reg 208 # message [207:0] $end
$var reg 1 $ rst $end
$scope function padded_size $end
$upscope $end
$scope module uut $end
$var wire 1 " clk $end
$var wire 208 % message [207:0] $end
$var wire 1 $ rst $end
$var wire 512 & padded [511:0] $end
$var wire 256 ' hashed [255:0] $end
$scope module loop $end
$var wire 1 " clk $end
$var wire 1 $ rst $end
$var wire 512 ( padded [511:0] $end
$var wire 256 ) hashed [255:0] $end
$var reg 32 * a [31:0] $end
$var reg 32 + b [31:0] $end
$var reg 32 , c [31:0] $end
$var reg 32 - d [31:0] $end
$var reg 32 . e [31:0] $end
$var reg 32 / f [31:0] $end
$var reg 32 0 g [31:0] $end
$var reg 32 1 h [31:0] $end
$var reg 32 2 h1 [31:0] $end
$var reg 32 3 h2 [31:0] $end
$var reg 32 4 h3 [31:0] $end
$var reg 32 5 h4 [31:0] $end
$var reg 32 6 h5 [31:0] $end
$var reg 32 7 h6 [31:0] $end
$var reg 32 8 h7 [31:0] $end
$var reg 32 9 h8 [31:0] $end
$var reg 256 : initial_hashes [255:0] $end
$var reg 7 ; j [6:0] $end
$var reg 2048 < k [2047:0] $end
$var reg 32 = t1 [31:0] $end
$var reg 32 > t2 [31:0] $end
$scope function K $end
$var reg 32 ? K [31:0] $end
$var reg 7 @ x [6:0] $end
$upscope $end
$scope function W $end
$upscope $end
$scope function ch $end
$var reg 32 A ch [31:0] $end
$var reg 32 B x [31:0] $end
$var reg 32 C y [31:0] $end
$var reg 32 D z [31:0] $end
$upscope $end
$scope function maj $end
$var reg 32 E maj [31:0] $end
$var reg 32 F x [31:0] $end
$var reg 32 G y [31:0] $end
$var reg 32 H z [31:0] $end
$upscope $end
$scope function rho0 $end
$upscope $end
$scope function rho1 $end
$upscope $end
$scope function sum0 $end
$var reg 32 I sum0 [31:0] $end
$var reg 32 J x [31:0] $end
$upscope $end
$scope function sum1 $end
$var reg 32 K sum1 [31:0] $end
$var reg 32 L x [31:0] $end
$upscope $end
$scope begin genblk1[0] $end
$var reg 32 M ch_efg [31:0] $end
$var reg 32 N kj [31:0] $end
$var reg 32 O maj_abc [31:0] $end
$var reg 32 P sum0_a [31:0] $end
$var reg 32 Q sum1_e [31:0] $end
$var reg 32 R wj [31:0] $end
$upscope $end
$upscope $end
$scope module padder $end
$var wire 208 S message [207:0] $end
$var wire 512 T padded [511:0] $end
$upscope $end
$upscope $end
$scope begin $ivl_for_loop0 $end
$var integer 32 U i [31:0] $end
$upscope $end
$upscope $end
$enddefinitions $end
#0
$dumpvars
b0 U
b1101100011011110111001001100101011011010010000001101001011100000111001101110101011011010010000001100100011011110110110001101111011100100010000001110011011010010111010000100000011000010110110101100101011101001000000000000000000000000000000000000000000000000000000000000000000000000000000000000000000000000000000000000000000000000000000000000000000000000000000000000000000000000000000000000000000000000000000000000000000000000000000000000000000000000000000000000000000000000000000000000000000000000000000011010000 T
b110110001101111011100100110010101101101001000000110100101110000011100110111010101101101001000000110010001101111011011000110111101110010001000000111001101101001011101000010000001100001011011010110010101110100 S
b11101110111 R
b100010001000 Q
b100010001000 P
b100010001000 O
bx N
b100010001000 M
bx L
b100010001000 K
bx J
b100010001000 I
bx H
bx G
bx F
b100010001000 E
bx D
bx C
bx B
b100010001000 A
b0x @
bx ?
bx >
bx =
b1000010100010100010111110011000011100010011011101000100100100011011010111000000111110111100111111101001101101011101101110100101001110010101011011000010010110110101100111110001000100011111000110010010001111111000001010100100101010110001110001011110110101011101100000000111101010101001100000010010100000110101101100000001001001000011000110000101101111100101010100001100011111011100001101110010101111100101110101110100100000001101111010110001111111101001101111011100000001101010011111000001100110111111000101110100111001001001101101101001110000011110111110111110010001111000011000001111110000011001110111000110001001000000110010100001110011000010110111101001001011000110111101001010011101001000010010101010010111001011000010101001110111000111011011111001100010001101101010011000001111100101000101010010101010000011000111000110011011011011000000000011001001111100100010111111010110010111111111000111110001101110000000001011111100111101010110100111100100010100011100000110110010100110001101010001000101000010100100101001011001110010011110110111000010101000010100101110000110110010000100111000010011010010110001101101111111000101001100111000000011010001001101100101000010100111001101010100011101100110101000001010101110111000000111000010110010010010111010010010011100100010110010000101101000101011111111101000101000011010100000011010011001100100101111000010010010111000101101110000110001110110110001010001101000111101000110010010111010000001100111010110100110010000011000100100111101000000111000110101100001010001000001101010101000000111000000011001101001001100000100010110000111100011011101101100000010000010011101001000011101110100110000110100101100001011110010110101001110010001110000001100101100110100111011011000101010100100101001011011100111001100101001001111011010000010111001101111111100110111010010001111100000101110111001111000101001010110001101101111100001001100100001111000000101001000110011000111000000100000100010010000101111101111111111111010101001000101000001101100111010111011111011111001101000111111011111000110011100010111100011110010 <
b0x ;
b110101000001001111001100110011110111011011001111010111010000101001111000110111011110011011100101010010101001111111101010011101001010001000011100101001001111111100110110000010101101000100011000001111110000011110110011010101101011011111000001100110100011001 :
b1011011111000001100110100011001 9
b11111100000111101100110101011 8
b10011011000001010110100010001100 7
b1010001000011100101001001111111 6
b10100101010011111111010100111010 5
b111100011011101111001101110010 4
b10111011011001111010111010000101 3
b1101010000010011110011001100111 2
bx 1
bx 0
bx /
bx .
bx -
bx ,
bx +
bx *
b110101000001001111001100110011110111011011001111010111010000101001111000110111011110011011100101010010101001111111101010011101001010001000011100101001001111111100110110000010101101000100011000001111110000011110110011010101101011011111000001100110100011001 )
b1101100011011110111001001100101011011010010000001101001011100000111001101110101011011010010000001100100011011110110110001101111011100100010000001110011011010010111010000100000011000010110110101100101011101001000000000000000000000000000000000000000000000000000000000000000000000000000000000000000000000000000000000000000000000000000000000000000000000000000000000000000000000000000000000000000000000000000000000000000000000000000000000000000000000000000000000000000000000000000000000000000000000000000000011010000 (
b110101000001001111001100110011110111011011001111010111010000101001111000110111011110011011100101010010101001111111101010011101001010001000011100101001001111111100110110000010101101000100011000001111110000011110110011010101101011011111000001100110100011001 '
b1101100011011110111001001100101011011010010000001101001011100000111001101110101011011010010000001100100011011110110110001101111011100100010000001110011011010010111010000100000011000010110110101100101011101001000000000000000000000000000000000000000000000000000000000000000000000000000000000000000000000000000000000000000000000000000000000000000000000000000000000000000000000000000000000000000000000000000000000000000000000000000000000000000000000000000000000000000000000000000000000000000000000000000000011010000 &
b110110001101111011100100110010101101101001000000110100101110000011100110111010101101101001000000110010001101111011011000110111101110010001000000111001101101001011101000010000001100001011011010110010101110100 %
1$
b110110001101111011100100110010101101101001000000110100101110000011100110111010101101101001000000110010001101111011011000110111101110010001000000111001101101001011101000010000001100001011011010110010101110100 #
0"
b110101000001001111001100110011110111011011001111010111010000101001111000110111011110011011100101010010101001111111101010011101001010001000011100101001001111111100110110000010101101000100011000001111110000011110110011010101101011011111000001100110100011001 !
$end
#500
b1000010100010100010111110011000 N
b1000010100010100010111110011000 ?
b0 @
b1101100011011110111001001100101 R
b110101100001110010011100101011 Q
b110101100001110010011100101011 K
b1010001000011100101001001111111 L
b11001110001000001011010001111110 P
b11001110001000001011010001111110 I
b1101010000010011110011001100111 J
b111010011011111110011001100111 O
b111010011011111110011001100111 E
b1101010000010011110011001100111 F
b10111011011001111010111010000101 G
b111100011011101111001101110010 H
b11111100001011100100110001100 M
b11111100001011100100110001100 A
b1010001000011100101001001111111 B
b10011011000001010110100010001100 C
b11111100000111101100110101011 D
b0 ;
b1011011111000001100110100011001 1
b11111100000111101100110101011 0
b10011011000001010110100010001100 /
b1010001000011100101001001111111 .
b10100101010011111111010100111010 -
b111100011011101111001101110010 ,
b10111011011001111010111010000101 +
b1101010000010011110011001100111 *
1"
0$
#1000
b1000100100001001101011100101 >
b1011111111001110101111111001101 =
0"
b1 U
#1500
b1110001001101110100010010010001 N
b1110001001101110100010010010001 ?
b1 @
b1101101001000000110100101110000 R
b100111010111101111100000111100 Q
b100111010111101111100000111100 K
b101001101110101010100000111 L
b10010000011001000111010010110010 P
b10010000011001000111010010110010 I
b1101000011101111111101010110010 J
b1101010011001111110111010100111 O
b1101010011001111110111010100111 E
b1101000011101111111101010110010 F
b1101010000010011110011001100111 G
b10111011011001111010111010000101 H
b10011011000001100111100010001111 M
b10011011000001100111100010001111 A
b101001101110101010100000111 B
b1010001000011100101001001111111 C
b10011011000001010110100010001100 D
b1 ;
b1101000011101111111101010110010 *
b1101010000010011110011001100111 +
b10111011011001111010111010000101 ,
b111100011011101111001101110010 -
b101001101110101010100000111 .
b1010001000011100101001001111111 /
b10011011000001010110100010001100 0
b11111100000111101100110101011 1
1"
b10 U
#2000
b11111010110011000110001101011001 >
b11000000010000001111100001110111 =
0"
b11 U
#2500
b10110101110000001111101111001111 N
b10110101110000001111101111001111 ?
b10 @
b1110011011101010110110100100000 R
b10001101001110001101111010101100 Q
b10001101001110001101111010101100 K
b11111100101011111110101111101001 L
b11000101001010011100110001110010 P
b11000101001010011100110001110010 I
b10111011000011010101101111010000 J
b1101010000011011111101011110010 O
b1101010000011011111101011110010 E
b10111011000011010101101111010000 F
b1101000011101111111101010110010 G
b1101010000010011110011001100111 H
b101001001110101000100010111 M
b101001001110101000100010111 A
b11111100101011111110101111101001 B
b101001101110101010100000111 C
b1010001000011100101001001111111 D
b10 ;
b10111011000011010101101111010000 *
b1101000011101111111101010110010 +
b1101010000010011110011001100111 ,
b10111011011001111010111010000101 -
b11111100101011111110101111101001 .
b101001101110101010100000111 /
b1010001000011100101001001111111 0
b10011011000001010110100010001100 1
1"
b100 U
#3000
b101111001101111100011101100100 >
b1010110100111000000000100111110 =
0"
b101 U
#3500
b11101001101101011101101110100101 N
b11101001101101011101101110100101 ?
b11 @
b1100100011011110110110001101111 R
b11110101111111011010111101000011 Q
b11110101111111011010111101000011 K
b10010000000111010111111000011 L
b10101011010000100101011010100001 P
b10101011010000100101011010100001 I
b10000101110100111100100010100010 J
b10101001010101111101101010110010 O
b10101001010101111101101010110010 E
b10000101110100111100100010100010 F
b10111011000011010101101111010000 G
b1101000011101111111101010110010 H
b10101001101111111101111000101 M
b10101001101111111101111000101 A
b10010000000111010111111000011 B
b11111100101011111110101111101001 C
b101001101110101010100000111 D
b11 ;
b10000101110100111100100010100010 *
b10111011000011010101101111010000 +
b1101000011101111111101010110010 ,
b1101010000010011110011001100111 -
b10010000000111010111111000011 .
b11111100101011111110101111101001 /
b101001101110101010100000111 0
b1010001000011100101001001111111 1
1"
b110 U
#4000
b1010100100110100011000101010011 >
b10101010011010010100010110011011 =
0"
b111 U
#4500
b111001010101101100001001011011 N
b111001010101101100001001011011 ?
b100 @
b1110010001000000111001101101001 R
b10110001100001010100001111011111 Q
b10110001100001010100001111011111 K
b10100011100110010110000000010 L
b101011011001001111001011100 P
b101011011001001111001011100 I
b11111111000000110111011011101110 J
b10111111000000110101101011100010 O
b10111111000000110101101011100010 E
b11111111000000110111011011101110 F
b10000101110100111100100010100010 G
b10111011000011010101101111010000 H
b11111000100011111110111111101011 M
b11111000100011111110111111101011 A
b10100011100110010110000000010 B
b10010000000111010111111000011 C
b11111100101011111110101111101001 D
b100 ;
b11111111000000110111011011101110 *
b10000101110100111100100010100010 +
b10111011000011010101101111010000 ,
b1101000011101111111101010110010 -
b10100011100110010110000000010 .
b10010000000111010111111000011 /
b11111100101011111110101111101001 0
b101001101110101010100000111 1
1"
b1000 U
#5000
b11000100011011111111100100111110 >
b1011010110000111011111010010101 =
0"
b1001 U
#5500
b1011001111100010001000111110001 N
b1011001111100010001000111110001 ?
b101 @
b1110100001000000110000101101101 R
b10101010001010000010101001110011 Q
b10101010001010000010101001110011 K
b11000011001110111011100101000111 L
b10110111100010110101100000010101 P
b10110111100010110101100000010101 I
b11111001100111011011111010011 J
b10011111000100111111011011100010 O
b10011111000100111111011011100010 E
b11111001100111011011111010011 F
b11111111000000110111011011101110 G
b10000101110100111100100010100010 H
b10000001100110010111010000010 M
b10000001100110010111010000010 A
b11000011001110111011100101000111 B
b10100011100110010110000000010 C
b10010000000111010111111000011 D
b101 ;
b11111001100111011011111010011 *
b11111111000000110111011011101110 +
b10000101110100111100100010100010 ,
b10111011000011010101101111010000 -
b11000011001110111011100101000111 .
b10100011100110010110000000010 /
b10010000000111010111111000011 0
b11111100101011111110101111101001 1
1"
b1010 U
#6000
b1010110100111110100111011110111 >
b10000101000111001011100000111100 =
0"
b1011 U
#6500
b10010010001111111000001010100100 N
b10010010001111111000001010100100 ?
b110 @
b1100101011101001000000000000000 R
b10100101100000101010101100110010 Q
b10100101100000101010101100110010 K
b1000000001010100001010000001100 L
b111111011011010001001101000010 P
b111111011011010001001101000010 I
b11011011101111000000011100110011 J
b11011111001100110011011111110011 O
b11011111001100110011011111110011 E
b11011011101111000000011100110011 F
b11111001100111011011111010011 G
b11111111000000110111011011101110 H
b1010100011110110011100000000110 M
b1010100011110110011100000000110 A
b1000000001010100001010000001100 B
b11000011001110111011100101000111 C
b10100011100110010110000000010 D
b110 ;
b11011011101111000000011100110011 *
b11111001100111011011111010011 +
b11111111000000110111011011101110 ,
b10000101110100111100100010100010 -
b1000000001010100001010000001100 .
b11000011001110111011100101000111 /
b10100011100110010110000000010 0
b10010000000111010111111000011 1
1"
b1100 U
#7000
b11110101000000100101100110101 >
b11101101011001010110011111 =
0"
b1101 U
#7500
b10101011000111000101111011010101 N
b10101011000111000101111011010101 ?
b111 @
b0 R
b1010101110000011010010010110 Q
b1010101110000011010010010110 K
b10001001100010010101111001000001 L
b1011001101101110011101000010011 P
b1011001101101110011101000010011 I
b100010010101011110000011010100 J
b11011001101011010011111010011 O
b11011001101011010011111010011 E
b100010010101011110000011010100 F
b11011011101111000000011100110011 G
b11111001100111011011111010011 H
b1000010001110101011010100000110 M
b1000010001110101011010100000110 A
b10001001100010010101111001000001 B
b1000000001010100001010000001100 C
b11000011001110111011100101000111 D
b111 ;
b100010010101011110000011010100 *
b11011011101111000000011100110011 +
b11111001100111011011111010011 ,
b11111111000000110111011011101110 -
b10001001100010010101111001000001 .
b1000000001010100001010000001100 /
b11000011001110111011100101000111 0
b10100011100110010110000000010 1
1"
b1110 U
#8000
b1110100111011001110000111100110 >
b1100100000100111010001110011 =
0"
b1111 U
#8500
b11011000000001111010101010011000 N
b11011000000001111010101010011000 ?
b1000 @
b101010111110101101011110010101 Q
b101010111110101101011110010101 K
b1011100001011110101101100001 L
b1101111110011101011100011101001 P
b1101111110011101011100011101001 I
b10000001011011110101011001011001 J
b10000011011111010100011001010001 O
b10000011011111010100011001010001 E
b10000001011011110101011001011001 F
b100010010101011110000011010100 G
b11011011101111000000011100110011 H
b1001001101010110101111001001101 M
b1001001101010110101111001001101 A
b1011100001011110101101100001 B
b10001001100010010101111001000001 C
b1000000001010100001010000001100 D
b1000 ;
b10000001011011110101011001011001 *
b100010010101011110000011010100 +
b11011011101111000000011100110011 ,
b11111001100111011011111010011 -
b1011100001011110101101100001 .
b10001001100010010101111001000001 /
b1000000001010100001010000001100 0
b11000011001110111011100101000111 1
1"
b10000 U
#9000
b11110011010010111111111100111010 >
b1111111010011001100111000001 =
0"
b10001 U
#9500
b10010100000110101101100000001 N
b10010100000110101101100000001 ?
b1001 @
b11101100100100010101110011111011 Q
b11101100100100010101110011111011 K
b101111000111010101000110010100 L
b11010001011101101001001110011110 P
b11010001011101101001001110011110 I
b11001101011001100011111011 J
b11011101011101000011011001 O
b11011101011101000011011001 E
b11001101011001100011111011 F
b10000001011011110101011001011001 G
b100010010101011110000011010100 H
b10001011100001010100111101000001 M
b10001011100001010100111101000001 A
b101111000111010101000110010100 B
b1011100001011110101101100001 C
b10001001100010010101111001000001 D
b1001 ;
b11001101011001100011111011 *
b10000001011011110101011001011001 +
b100010010101011110000011010100 ,
b11011011101111000000011100110011 -
b101111000111010101000110010100 .
b1011100001011110101101100001 /
b10001001100010010101111001000001 0
b1000000001010100001010000001100 1
1"
b10010 U
#10000
b11010100111011000110010001110111 >
b11001010110001000001101101001001 =
0"
b10011 U
#10500
b100100001100011000010110111110 N
b100100001100011000010110111110 ?
b1010 @
b11111101000111111110111011011110 Q
b11111101000111111110111011011110 K
b10100110100000000010001001111100 L
b11000000101111110000000001101 P
b11000000101111110000000001101 I
b10011111101100000111111111000000 J
b10000011001101010101111011011001 O
b10000011001101010101111011011001 E
b10011111101100000111111111000000 F
b11001101011001100011111011 G
b10000001011011110101011001011001 H
b101111000001011100100100010101 M
b101111000001011100100100010101 A
b10100110100000000010001001111100 B
b101111000111010101000110010100 C
b1011100001011110101101100001 D
b1010 ;
b10011111101100000111111111000000 *
b11001101011001100011111011 +
b10000001011011110101011001011001 ,
b100010010101011110000011010100 -
b10100110100000000010001001111100 .
b101111000111010101000110010100 /
b1011100001011110101101100001 0
b10001001100010010101111001000001 1
1"
b10100 U
#11000
b10011011010011010011111011100110 >
b11011001111000001001101111110010 =
0"
b10101 U
#11500
b1010101000011000111110111000011 N
b1010101000011000111110111000011 ?
b1011 @
b10011000000100010011110001000010 Q
b10011000000100010011110001000010 K
b11111100001101100111110011000110 L
b1111100111000111011111000001100 P
b1111100111000111011111000001100 I
b1110101001011011101101011011000 J
b10111001101011101101011011000 O
b10111001101011101101011011000 E
b1110101001011011101101011011000 F
b10011111101100000111111111000000 G
b11001101011001100011111011 H
b10100111000010010010000101010100 M
b10100111000010010010000101010100 A
b11111100001101100111110011000110 B
b10100110100000000010001001111100 C
b101111000111010101000110010100 D
b1011 ;
b1110101001011011101101011011000 *
b10011111101100000111111111000000 +
b11001101011001100011111011 ,
b10000001011011110101011001011001 -
b11111100001101100111110011000110 .
b10100110100000000010001001111100 /
b101111000111010101000110010100 0
b1011100001011110101101100001 1
1"
b10110 U
#12000
b10010100000110011001100011100100 >
b10011111101011001100011010111010 =
0"
b10111 U
#12500
b1110010101111100101110101110100 N
b1110010101111100101110101110100 ?
b1100 @
b1100000111011101101101001100111 Q
b1100000111011101101101001100111 K
b100001000111000001110100010011 L
b1101001011111100111000100011010 P
b1101001011111100111000100011010 I
b110011110001100101111110011110 J
b110111101001000101111111011000 O
b110111101001000101111111011000 E
b110011110001100101111110011110 F
b1110101001011011101101011011000 G
b10011111101100000111111111000000 H
b10100110100101000011111001101110 M
b10100110100101000011111001101110 A
b100001000111000001110100010011 B
b11111100001101100111110011000110 C
b10100110100000000010001001111100 D
b1100 ;
b110011110001100101111110011110 *
b1110101001011011101101011011000 +
b10011111101100000111111111000000 ,
b11001101011001100011111011 -
b100001000111000001110100010011 .
b11111100001101100111110011000110 /
b10100110100000000010001001111100 0
b101111000111010101000110010100 1
1"
b11000 U
#13000
b10100001001000101101000011110010 >
b10101001010111101100011111011101 =
0"
b11001 U
#13500
b10000000110111101011000111111110 N
b10000000110111101011000111111110 ?
b1101 @
b110011100101111010111101011001 Q
b110011100101111010111101011001 K
b10101100100101000110000011011000 L
b10010101110010000111100010101 P
b10010101110010000111100010101 I
b1001010100000011001100011001111 J
b1110011100001011101101011011110 O
b1110011100001011101101011011110 E
b1001010100000011001100011001111 F
b110011110001100101111110011110 G
b1110101001011011101101011011000 H
b1110000001101100001110000010110 M
b1110000001101100001110000010110 A
b10101100100101000110000011011000 B
b100001000111000001110100010011 C
b11111100001101100111110011000110 D
b1101 ;
b1001010100000011001100011001111 *
b110011110001100101111110011110 +
b1110101001011011101101011011000 ,
b10011111101100000111111111000000 -
b10101100100101000110000011011000 .
b100001000111000001110100010011 /
b11111100001101100111110011000110 0
b10100110100000000010001001111100 1
1"
b11010 U
#14000
b10000110001111101110100111110011 >
b11001011001011001001111111101001 =
0"
b11011 U
#14500
b10011011110111000000011010100111 N
b10011011110111000000011010100111 ?
b1110 @
b111110000010011111101101101000 Q
b111110000010011111101101101000 K
b1101010110111010001111110101001 L
b11110100100111110001100001101110 P
b11110100100111110001100001101110 I
b1010001011010111000100111011100 J
b1010011110000111001100111011110 O
b1010011110000111001100111011110 E
b1010001011010111000100111011100 F
b1001010100000011001100011001111 G
b110011110001100101111110011110 H
b101001100101000000000010011010 M
b101001100101000000000010011010 A
b1101010110111010001111110101001 B
b10101100100101000110000011011000 C
b100001000111000001110100010011 D
b1110 ;
b1010001011010111000100111011100 *
b1001010100000011001100011001111 +
b110011110001100101111110011110 ,
b1110101001011011101101011011000 -
b1101010110111010001111110101001 .
b10101100100101000110000011011000 /
b100001000111000001110100010011 0
b11111100001101100111110011000110 1
1"
b11100 U
#15000
b1001000011000101011001001001100 >
b11111111101100000111111101101111 =
0"
b11101 U
#15500
b11000001100110111111000101110100 N
b11000001100110111111000101110100 ?
b1111 @
b11010000 R
b111010000100001100000100011000 Q
b111010000100001100000100011000 K
b1110100110111100101101001000111 L
b10011000110000110000111010111 P
b10011000110000110000111010111 I
b1001000000100110011000110111011 J
b1001000000000111001100111011111 O
b1001000000000111001100111011111 E
b1001000000100110011000110111011 F
b1010001011010111000100111011100 G
b1001010100000011001100011001111 H
b11101000110111000011101010011001 M
b11101000110111000011101010011001 A
b1110100110111100101101001000111 B
b1101010110111010001111110101001 C
b10101100100101000110000011011000 D
b1111 ;
b1001000000100110011000110111011 *
b1010001011010111000100111011100 +
b1001010100000011001100011001111 ,
b110011110001100101111110011110 -
b1110100110111100101101001000111 .
b1101010110111010001111110101001 /
b10101100100101000110000011011000 0
b100001000111000001110100010011 1
1"
b11110 U
#16000
b1011011000110111111101110110110 >
b101101001010000101100001000 =
0"
b11111 U
#16500
b11100100100110110110100111000001 N
b11100100100110110110100111000001 ?
b10000 @
b1100011100100011100100100011001 R
b1111001100101111101001111011011 Q
b1111001100101111101001111011011 K
b111001011010110110101010100110 L
b10101001110110011011111000100100 P
b10101001110110011011111000100100 I
b1100000110000010000011010111110 J
b1000000010000110000000110111110 O
b1000000010000110000000110111110 E
b1100000110000010000011010111110 F
b1001000000100110011000110111011 G
b1010001011010111000100111011100 H
b1110010110111100101111100001111 M
b1110010110111100101111100001111 A
b111001011010110110101010100110 B
b1110100110111100101101001000111 C
b1101010110111010001111110101001 D
b10000 ;
b1100000110000010000011010111110 *
b1001000000100110011000110111011 +
b1010001011010111000100111011100 ,
b1001010100000011001100011001111 -
b111001011010110110101010100110 .
b1110100110111100101101001000111 /
b1101010110111010001111110101001 0
b10101100100101000110000011011000 1
1"
b100000 U
#17000
b11101010000111001011111111100010 >
b11100001001101111100011010011100 =
0"
b100001 U
#17500
b11101111101111100100011110000110 N
b11101111101111100100011110000110 ?
b10001 @
b10000011010100101100010100010011 R
b10011101011001000010011111000011 Q
b10011101011001000010011111000011 K
b101011101110010101111101101011 L
b11010011001110101000000000010110 P
b11010011001110101000000000010110 I
b11001011010101001000011001111110 J
b1001000010100010000011010111110 O
b1001000010100010000011010111110 E
b11001011010101001000011001111110 F
b1100000110000010000011010111110 G
b1001000000100110011000110111011 H
b1111101011011110100101000100110 M
b1111101011011110100101000100110 A
b101011101110010101111101101011 B
b111001011010110110101010100110 C
b1110100110111100101101001000111 D
b10001 ;
b11001011010101001000011001111110 *
b1100000110000010000011010111110 +
b1001000000100110011000110111011 ,
b1010001011010111000100111011100 -
b101011101110010101111101101011 .
b111001011010110110101010100110 /
b1110100110111100101101001000111 0
b1101010110111010001111110101001 1
1"
b100010 U
#18000
b11011100010111000011011010100 >
b11111000110000011001111000101011 =
0"
b100011 U
#18500
b1111110000011001110111000110 N
b1111110000011001110111000110 ?
b10010 @
b1011010100010111101000100110110 R
b1011010101011111001010100000 Q
b1011010101011111001010100000 K
b1001010001011010010100000000111 L
b11010110011110000001011100000111 P
b11010110011110000001011100000111 I
b10100010011010010010011111111 J
b1000000010001010000011011111110 O
b1000000010001010000011011111110 E
b10100010011010010010011111111 F
b11001011010101001000011001111110 G
b1100000110000010000011010111110 H
b111011011010110100101010100011 M
b111011011010110100101010100011 A
b1001010001011010010100000000111 B
b101011101110010101111101101011 C
b111001011010110110101010100110 D
b10010 ;
b10100010011010010010011111111 *
b11001011010101001000011001111110 +
b1100000110000010000011010111110 ,
b1001000000100110011000110111011 -
b1001010001011010010100000000111 .
b101011101110010101111101101011 /
b111001011010110110101010100110 0
b1110100110111100101101001000111 1
1"
b100100 U
#19000
b10110101111010001111000000101 >
b100101111011010000011010000110 =
0"
b100101 U
#19500
b100100000011001010000111001100 N
b100100000011001010000111001100 ?
b10011 @
b1011110111101001110001111100100 R
b1101100010011110000001010001 Q
b1101100010011110000001010001 K
b1101110000000000011100001000001 L
b1000011111000010100000010000001 P
b1000011111000010100000010000001 I
b111100101010100010010010001011 J
b11100010011000010010011111111 O
b11100010011000010010011111111 E
b111100101010100010010010001011 F
b10100010011010010010011111111 G
b11001011010101001000011001111110 H
b1001011101110010110111100101011 M
b1001011101110010110111100101011 A
b1101110000000000011100001000001 B
b1001010001011010010100000000111 C
b101011101110010101111101101011 D
b10011 ;
b111100101010100010010010001011 *
b10100010011010010010011111111 +
b11001011010101001000011001111110 ,
b1100000110000010000011010111110 -
b1101110000000000011100001000001 .
b1001010001011010010100000000111 /
b101011101110010101111101101011 0
b111001011010110110101010100110 1
1"
b100110 U
#20000
b1100000001011010110010110000000 >
b10101101100000011111111010010 =
0"
b100111 U
#20500
b101101111010010010110001101111 N
b101101111010010010110001101111 ?
b10100 @
b11010001000000101100101000110000 R
b10101011011101000100001100001001 Q
b10101011011101000100001100001001 K
b1110110011100010100011010010000 L
b11000001011100011000111001101110 P
b11000001011100011000111001101110 I
b1110101110111011010010101010010 J
b110100110011010010010011011011 O
b110100110011010010010011011011 E
b1110101110111011010010101010010 F
b111100101010100010010010001011 G
b10100010011010010010011111111 H
b1101110000011000010100000000111 M
b1101110000011000010100000000111 A
b1110110011100010100011010010000 B
b1101110000000000011100001000001 C
b1001010001011010010100000000111 D
b10100 ;
b1110101110111011010010101010010 *
b111100101010100010010010001011 +
b10100010011010010010011111111 ,
b11001011010101001000011001111110 -
b1110110011100010100011010010000 .
b1101110000000000011100001000001 /
b1001010001011010010100000000111 0
b101011101110010101111101101011 1
1"
b101000 U
#21000
b11110110001111101011001101001001 >
b1000100001001011100000100011010 =
0"
b101001 U
#21500
b1001010011101001000010010101010 N
b1001010011101001000010010101010 ?
b10101 @
b10001110000111011101101101100110 R
b101110000111111100101001010001 Q
b101110000111111100101001010001 K
b1111011110100100011110011000 L
b11111100010100010100001011010010 P
b11111100010100010100001011010010 I
b111010011001000111010001100011 J
b111100111011000010010001000011 O
b111100111011000010010001000011 E
b111010011001000111010001100011 F
b1110101110111011010010101010010 G
b111100101010100010010010001011 H
b1100110011100000111111011010001 M
b1100110011100000111111011010001 A
b1111011110100100011110011000 B
b1110110011100010100011010010000 C
b1101110000000000011100001000001 D
b10101 ;
b111010011001000111010001100011 *
b1110101110111011010010101010010 +
b111100101010100010010010001011 ,
b10100010011010010010011111111 -
b1111011110100100011110011000 .
b1110110011100010100011010010000 /
b1101110000000000011100001000001 0
b1001010001011010010100000000111 1
1"
b101010 U
#22000
b111001001111010110011100010101 >
b10110111010011111101000100111001 =
0"
b101011 U
#22500
b1011100101100001010100111011100 N
b1011100101100001010100111011100 ?
b10110 @
b10100001110111101011001011100011 R
b11101010010011000001110000100011 Q
b11101010010011000001110000100011 K
b11001011100111001111011000111000 L
b1001010101101011111000110111000 P
b1001010101101011111000110111000 I
b11110000100011010011100001001110 J
b1110000110011010011010001000010 O
b1110000110011010011010001000010 E
b11110000100011010011100001001110 F
b111010011001000111010001100011 G
b1110101110111011010010101010010 H
b111111011110010100011010011000 M
b111111011110010100011010011000 A
b11001011100111001111011000111000 B
b1111011110100100011110011000 C
b1110110011100010100011010010000 D
b10110 ;
b11110000100011010011100001001110 *
b111010011001000111010001100011 +
b1110101110111011010010101010010 ,
b111100101010100010010010001011 -
b11001011100111001111011000111000 .
b1111011110100100011110011000 /
b1110110011100010100011010010000 0
b1101110000000000011100001000001 1
1"
b101100 U
#23000
b10111011100000110010010111111010 >
b10010110010101001111011110111011 =
0"
b101101 U
#23500
b1110110111110011000100011011010 N
b1110110111110011000100011011010 ?
b10111 @
b10111010100011011101101011010100 R
b11101100000111111000000011111011 Q
b11101100000111111000000011111011 K
b11010010111111110001110001000110 L
b11011001101010100101110011101010 P
b11011001101010100101110011101010 I
b1010001110110000001110110110101 J
b1110000110011000011110001100111 O
b1110000110011000011110001100111 E
b1010001110110000001110110110101 F
b11110000100011010011100001001110 G
b111010011001000111010001100011 H
b11001111100111000101011110011000 M
b11001111100111000101011110011000 A
b11010010111111110001110001000110 B
b11001011100111001111011000111000 C
b1111011110100100011110011000 D
b10111 ;
b1010001110110000001110110110101 *
b11110000100011010011100001001110 +
b111010011001000111010001100011 ,
b1110101110111011010010101010010 -
b11010010111111110001110001000110 .
b11001011100111001111011000111000 /
b1111011110100100011110011000 0
b1110110011100010100011010010000 1
1"
b101110 U
#24000
b1001010011101101001100101010001 >
b1100011101101001000001011010001 =
0"
b101111 U
#24500
b10011000001111100101000101010010 N
b10011000001111100101000101010010 ?
b11000 @
b10010010110001001100010001011 R
b1000010000010010110101100001001 Q
b1000010000010010110101100001001 K
b11011001100100100010100000100011 L
b11100110111011110011110011101000 P
b11100110111011110011110011101000 I
b10101110001010110001110000100010 J
b11110000100010010001110000100110 O
b11110000100010010001110000100110 E
b10101110001010110001110000100010 F
b1010001110110000001110110110101 G
b11110000100011010011100001001110 H
b11010010100111101101111000011010 M
b11010010100111101101111000011010 A
b11011001100100100010100000100011 B
b11010010111111110001110001000110 C
b11001011100111001111011000111000 D
b11000 ;
b10101110001010110001110000100010 *
b1010001110110000001110110110101 +
b11110000100011010011100001001110 ,
b111010011001000111010001100011 -
b11011001100100100010100000100011 .
b11010010111111110001110001000110 /
b11001011100111001111011000111000 0
b1111011110100100011110011000 1
1"
b110000 U
#25000
b11010111011110000101100100001110 >
b11001110101110010111101010011000 =
0"
b110001 U
