sha_256_tb.vcd
$date
	Mon Feb  5 00:18:46 2018
$end
$version
	Icarus Verilog
$end
$timescale
	10ps
$end
$scope module sha_256_tb $end
$var wire 256 ! hashed [255:0] $end
$var wire 1 " done $end
$var reg 1 # clk $end
$var reg 32 $ message [31:0] $end
$var reg 1 % rst $end
$scope function padded_size $end
$upscope $end
$scope module uut $end
$var wire 1 # clk $end
$var wire 32 & message [31:0] $end
$var wire 1 % rst $end
$var wire 512 ' padded [511:0] $end
$var wire 256 ( hashed [255:0] $end
$var wire 1 " done $end
$scope module loop $end
$var wire 1 # clk $end
$var wire 1 % rst $end
$var wire 512 ) padded [511:0] $end
$var wire 256 * hashed [255:0] $end
$var reg 32 + a [31:0] $end
$var reg 32 , b [31:0] $end
$var reg 32 - c [31:0] $end
$var reg 32 . ch_efg [31:0] $end
$var reg 32 / d [31:0] $end
$var reg 1 " done $end
$var reg 32 0 e [31:0] $end
$var reg 32 1 f [31:0] $end
$var reg 32 2 g [31:0] $end
$var reg 32 3 h [31:0] $end
$var reg 32 4 h1 [31:0] $end
$var reg 32 5 h2 [31:0] $end
$var reg 32 6 h3 [31:0] $end
$var reg 32 7 h4 [31:0] $end
$var reg 32 8 h5 [31:0] $end
$var reg 32 9 h6 [31:0] $end
$var reg 32 : h7 [31:0] $end
$var reg 32 ; h8 [31:0] $end
$var reg 7 < i [6:0] $end
$var reg 256 = initial_hashes [255:0] $end
$var reg 7 > j [6:0] $end
$var reg 2048 ? k [2047:0] $end
$var reg 32 @ kj [31:0] $end
$var reg 32 A maj_abc [31:0] $end
$var reg 32 B sum0_a [31:0] $end
$var reg 32 C sum1_e [31:0] $end
$var reg 32 D t1 [31:0] $end
$var reg 32 E t2 [31:0] $end
$var reg 32 F wj [31:0] $end
$scope function K $end
$var reg 32 G K [31:0] $end
$var reg 7 H x [6:0] $end
$upscope $end
$scope function W $end
$upscope $end
$scope function ch $end
$var reg 32 I ch [31:0] $end
$var reg 32 J x [31:0] $end
$var reg 32 K y [31:0] $end
$var reg 32 L z [31:0] $end
$upscope $end
$scope function maj $end
$var reg 32 M maj [31:0] $end
$var reg 32 N x [31:0] $end
$var reg 32 O y [31:0] $end
$var reg 32 P z [31:0] $end
$upscope $end
$scope function rho0 $end
$upscope $end
$scope function rho1 $end
$upscope $end
$scope function sum0 $end
$var reg 32 Q sum0 [31:0] $end
$var reg 32 R x [31:0] $end
$upscope $end
$scope function sum1 $end
$var reg 32 S sum1 [31:0] $end
$var reg 32 T x [31:0] $end
$upscope $end
$upscope $end
$scope module padder $end
$var wire 32 U message [31:0] $end
$var wire 512 V padded [511:0] $end
$upscope $end
$upscope $end
$upscope $end
$enddefinitions $end
#0
$dumpvars
b1000100011000010111011001100101100000000000000000000000000000000000000000000000000000000000000000000000000000000000000000000000000000000000000000000000000000000000000000000000000000000000000000000000000000000000000000000000000000000000000000000000000000000000000000000000000000000000000000000000000000000000000000000000000000000000000000000000000000000000000000000000000000000000000000000000000000000000000000000000000000000000000000000000000000000000000000000000000000000000000000000000000000000000000000100000 V
b1000100011000010111011001100101 U
bx T
b100010001000 S
bx R
b100010001000 Q
bx P
bx O
bx N
b100010001000 M
bx L
bx K
bx J
b100010001000 I
b0x H
bx G
b11101110111 F
bx E
bx D
b100010001000 C
b100010001000 B
b100010001000 A
bx @
b1000010100010100010111110011000011100010011011101000100100100011011010111000000111110111100111111101001101101011101101110100101001110010101011011000010010110110101100111110001000100011111000110010010001111111000001010100100101010110001110001011110110101011101100000000111101010101001100000010010100000110101101100000001001001000011000110000101101111100101010100001100011111011100001101110010101111100101110101110100100000001101111010110001111111101001101111011100000001101010011111000001100110111111000101110100111001001001101101101001110000011110111110111110010001111000011000001111110000011001110111000110001001000000110010100001110011000010110111101001001011000110111101001010011101001000010010101010010111001011000010101001110111000111011011111001100010001101101010011000001111100101000101010010101010000011000111000110011011011011000000000011001001111100100010111111010110010111111111000111110001101110000000001011111100111101010110100111100100010100011100000110110010100110001101010001000101000010100100101001011001110010011110110111000010101000010100101110000110110010000100111000010011010010110001101101111111000101001100111000000011010001001101100101000010100111001101010100011101100110101000001010101110111000000111000010110010010010111010010010011100100010110010000101101000101011111111101000101000011010100000011010011001100100101111000010010010111000101101110000110001110110110001010001101000111101000110010010111010000001100111010110100110010000011000100100111101000000111000110101100001010001000001101010101000000111000000011001101001001100000100010110000111100011011101101100000010000010011101001000011101110100110000110100101100001011110010110101001110010001110000001100101100110100111011011000101010100100101001011011100111001100101001001111011010000010111001101111111100110111010010001111100000101110111001111000101001010110001101101111100001001100100001111000000101001000110011000111000000100000100010010000101111101111111111111010101001000101000001101100111010111011111011111001101000111111011111000110011100010111100011110010 ?
b0x >
b110101000001001111001100110011110111011011001111010111010000101001111000110111011110011011100101010010101001111111101010011101001010001000011100101001001111111100110110000010101101000100011000001111110000011110110011010101101011011111000001100110100011001 =
b0 <
b1011011111000001100110100011001 ;
b11111100000111101100110101011 :
b10011011000001010110100010001100 9
b1010001000011100101001001111111 8
b10100101010011111111010100111010 7
b111100011011101111001101110010 6
b10111011011001111010111010000101 5
b1101010000010011110011001100111 4
bx 3
bx 2
bx 1
bx 0
bx /
b100010001000 .
bx -
bx ,
bx +
b110101000001001111001100110011110111011011001111010111010000101001111000110111011110011011100101010010101001111111101010011101001010001000011100101001001111111100110110000010101101000100011000001111110000011110110011010101101011011111000001100110100011001 *
b1000100011000010111011001100101100000000000000000000000000000000000000000000000000000000000000000000000000000000000000000000000000000000000000000000000000000000000000000000000000000000000000000000000000000000000000000000000000000000000000000000000000000000000000000000000000000000000000000000000000000000000000000000000000000000000000000000000000000000000000000000000000000000000000000000000000000000000000000000000000000000000000000000000000000000000000000000000000000000000000000000000000000000000000000100000 )
b110101000001001111001100110011110111011011001111010111010000101001111000110111011110011011100101010010101001111111101010011101001010001000011100101001001111111100110110000010101101000100011000001111110000011110110011010101101011011111000001100110100011001 (
b1000100011000010111011001100101100000000000000000000000000000000000000000000000000000000000000000000000000000000000000000000000000000000000000000000000000000000000000000000000000000000000000000000000000000000000000000000000000000000000000000000000000000000000000000000000000000000000000000000000000000000000000000000000000000000000000000000000000000000000000000000000000000000000000000000000000000000000000000000000000000000000000000000000000000000000000000000000000000000000000000000000000000000000000000100000 '
b1000100011000010111011001100101 &
1%
b1000100011000010111011001100101 $
0#
x"
b110101000001001111001100110011110111011011001111010111010000101001111000110111011110011011100101010010101001111111101010011101001010001000011100101001001111111100110110000010101101000100011000001111110000011110110011010101101011011111000001100110100011001 !
$end
#500
b1000010100010100010111110011000 @
b1000010100010100010111110011000 G
b0 H
b1000100011000010111011001100101 F
b110101100001110010011100101011 C
b110101100001110010011100101011 S
b1010001000011100101001001111111 T
b11001110001000001011010001111110 B
b11001110001000001011010001111110 Q
b1101010000010011110011001100111 R
b111010011011111110011001100111 A
b111010011011111110011001100111 M
b1101010000010011110011001100111 N
b10111011011001111010111010000101 O
b111100011011101111001101110010 P
b11111100001011100100110001100 .
b11111100001011100100110001100 I
b1010001000011100101001001111111 J
b10011011000001010110100010001100 K
b11111100000111101100110101011 L
b0 >
b1011011111000001100110100011001 3
b11111100000111101100110101011 2
b10011011000001010110100010001100 1
b1010001000011100101001001111111 0
b10100101010011111111010100111010 /
b111100011011101111001101110010 -
b10111011011001111010111010000101 ,
b1101010000010011110011001100111 +
1#
0%
#1000
b1000100100001001101011100101 E
b110111110110010110001111001101 D
0#
#1500
b1110001001101110100010010010001 @
b1110001001101110100010010010001 G
b1 H
b10000000000000000000000000000000 F
b10101011001000111000001110100001 C
b10101011001000111000001110100001 S
b11011101001010010101100100000111 T
b11000010011100101011010111100010 B
b11000010011100101011010111100010 Q
b1000000011010011111111010110010 R
b1101010011010011110111010100111 A
b1101010011010011110111010100111 M
b1000000011010011111111010110010 N
b1101010000010011110011001100111 O
b10111011011001111010111010000101 P
b1010011000011000111000010001111 .
b1010011000011000111000010001111 I
b11011101001010010101100100000111 J
b1010001000011100101001001111111 K
b10011011000001010110100010001100 L
b1 >
b1000000011010011111111010110010 +
b1101010000010011110011001100111 ,
b10111011011001111010111010000101 -
b111100011011101111001101110010 /
b11011101001010010101100100000111 0
b1010001000011100101001001111111 1
b10011011000001010110100010001100 2
b11111100000111101100110101011 3
1#
#2000
b101100110111001010010010001001 E
b1110111010110001001001101100 D
0#
#2500
b10110101110000001111101111001111 @
b10110101110000001111101111001111 G
b10 H
b0 F
b1101111111001101110110001110010 C
b1101111111001101110110001110010 S
b1001011010110100000010111011110 T
b11100111100000111110011101101111 B
b11100111100000111110011101101111 Q
b111011110001111011011011110101 R
b1101010010010011111011011110111 A
b1101010010010011111011011110111 M
b111011110001111011011011110101 N
b1000000011010011111111010110010 O
b1101010000010011110011001100111 P
b1011001000011000101001100100111 .
b1011001000011000101001100100111 I
b1001011010110100000010111011110 J
b11011101001010010101100100000111 K
b1010001000011100101001001111111 L
b10 >
b111011110001111011011011110101 +
b1000000011010011111111010110010 ,
b1101010000010011110011001100111 -
b10111011011001111010111010000101 /
b1001011010110100000010111011110 0
b11011101001010010101100100000111 1
b1010001000011100101001001111111 2
b10011011000001010110100010001100 3
1#
#3000
b1010001110011011101111001100110 E
b11001101110011010001111110100 D
0#
#3500
b11101001101101011101101110100101 @
b11101001101101011101101110100101 G
b11 H
b111000110001110001110110001001 C
b111000110001110001110110001001 S
b11010101001000010101001001111001 T
b10010110001110111101010100000100 B
b10010110001110111101010100000100 Q
b1101011100001111000001001011010 R
b1101011110001111011011011110010 A
b1101011110001111011011011110010 M
b1101011100001111000001001011010 N
b111011110001111011011011110101 O
b1000000011010011111111010110010 P
b1001001000010000000100101011110 .
b1001001000010000000100101011110 I
b11010101001000010101001001111001 J
b1001011010110100000010111011110 K
b11011101001010010101100100000111 L
b11 >
b1101011100001111000001001011010 +
b111011110001111011011011110101 ,
b1000000011010011111111010110010 -
b1101010000010011110011001100111 /
b11010101001000010101001001111001 0
b1001011010110100000010111011110 1
b11011101001010010101100100000111 2
b1010001000011100101001001111111 3
1#
#4000
b10000000111000101111110110 E
b10111100100100110101010100001011 D
0#
#4500
b111001010101101100001001011011 @
b111001010101101100001001011011 G
b100 H
b11101000010000110001111001011001 C
b11101000010000110001111001011001 S
b100110100111010011101101110010 T
b111100001011000100101000001101 B
b111100001011000100101000001101 Q
b10111110100101101110000100000001 R
b111011100001111010001001010001 A
b111011100001111010001001010001 M
b10111110100101101110000100000001 N
b1101011100001111000001001011010 O
b111011110001111011011011110101 P
b1001101010000110001011011111100 .
b1001101010000110001011011111100 I
b100110100111010011101101110010 J
b11010101001000010101001001111001 K
b1001011010110100000010111011110 L
b100 >
b10111110100101101110000100000001 +
b1101011100001111000001001011010 ,
b111011110001111011011011110101 -
b1000000011010011111111010110010 /
b100110100111010011101101110010 0
b11010101001000010101001001111001 1
b1001011010110100000010111011110 2
b11011101001010010101100100000111 3
1#
#5000
b1110111101100111110110001011110 E
b1001100000001100101000010110111 D
0#
#5500
b1011001111100010001000111110001 @
b1011001111100010001000111110001 G
b101 H
b1110011001001111111101111110010 C
b1110011001001111111101111110010 S
b10001100011100000100111101101001 T
b1110000101101001100010110011010 B
b1110000101101001100010110011010 Q
b11000011101110100011110100010101 R
b11101011100101101010000100010001 A
b11101011100101101010000100010001 M
b11000011101110100011110100010101 N
b10111110100101101110000100000001 O
b1101011100001111000001001011010 P
b1010101000100010001101101110000 .
b1010101000100010001101101110000 I
b10001100011100000100111101101001 J
b100110100111010011101101110010 K
b11010101001000010101001001111001 L
b101 >
b11000011101110100011110100010101 +
b10111110100101101110000100000001 ,
b1101011100001111000001001011010 -
b111011110001111011011011110101 /
b10001100011100000100111101101001 0
b100110100111010011101101110010 1
b11010101001000010101001001111001 2
b1001011010110100000010111011110 3
1#
#6000
b1011100010010110110011010101011 E
b1101101100001000010111100110001 D
0#
#6500
b10010010001111111000001010100100 @
b10010010001111111000001010100100 G
b110 H
b11111011100000110001010110110000 C
b11111011100000110001010110110000 S
b10101001010010111110011000100110 T
b10100010110000101101100000101100 B
b10100010110000101101100000101100 Q
b11001001110011111001010111011100 R
b11001011100111101011010100010101 A
b11001011100111101011010100010101 M
b11001001110011111001010111011100 N
b11000011101110100011110100010101 O
b10111110100101101110000100000001 P
b10001110110101000101111101110000 .
b10001110110101000101111101110000 I
b10101001010010111110011000100110 J
b10001100011100000100111101101001 K
b100110100111010011101101110010 L
b110 >
b11001001110011111001010111011100 +
b11000011101110100011110100010101 ,
b10111110100101101110000100000001 -
b1101011100001111000001001011010 /
b10101001010010111110011000100110 0
b10001100011100000100111101101001 1
b100110100111010011101101110010 2
b11010101001000010101001001111001 3
1#
#7000
b1101110011000011000110101000001 E
b11110001101110000100101000111101 D
0#
#7500
b10101011000111000101111011010101 @
b10101011000111000101111011010101 G
b111 H
b1010000011110010001001101100101 C
b1010000011110010001001101100101 S
b1011101001111111100110010010111 T
b1000100101010001000110010010001 B
b1000100101010001000110010010001 Q
b1100000000110011101011101111110 R
b11000001100110111001010101011100 A
b11000001100110111001010101011100 M
b1100000000110011101011101111110 N
b11001001110011111001010111011100 O
b11000011101110100011110100010101 P
b10001001010010111100011101101110 .
b10001001010010111100011101101110 I
b1011101001111111100110010010111 J
b10101001010010111110011000100110 K
b10001100011100000100111101101001 L
b111 >
b1100000000110011101011101111110 +
b11001001110011111001010111011100 ,
b11000011101110100011110100010101 -
b10111110100101101110000100000001 /
b1011101001111111100110010010111 0
b10101001010010111110011000100110 1
b10001100011100000100111101101001 2
b100110100111010011101101110010 3
1#
#8000
b110010001000010000111101101 E
b10101011011111100111010100011010 D
0#
#8500
b11011000000001111010101010011000 @
b11011000000001111010101010011000 G
b1000 H
b10100100011011100001101001000111 C
b10100100011011100001101001000111 S
b1101010000101010101011000011011 T
b1011110000100010011010100010010 B
b1011110000100010011010100010010 Q
b10110001110000101001011100000111 R
b11100001110010111001011101011110 A
b11100001110010111001011101011110 M
b10110001110000101001011100000111 N
b1100000000110011101011101111110 O
b11001001110011111001010111011100 P
b11001001010111111110010000110111 .
b11001001010111111110010000110111 I
b1101010000101010101011000011011 J
b1011101001111111100110010010111 K
b10101001010010111110011000100110 L
b1000 >
b10110001110000101001011100000111 +
b1100000000110011101011101111110 ,
b11001001110011111001010111011100 -
b11000011101110100011110100010101 /
b1101010000101010101011000011011 0
b1011101001111111100110010010111 1
b10101001010010111110011000100110 2
b10001100011100000100111101101001 3
1#
#9000
b111111110111001100110001110000 E
b11010010010001011111100001111111 D
0#
#9500
b10010100000110101101100000001 @
b10010100000110101101100000001 G
b1001 H
b11100000110100000000101010011011 C
b11100000110100000000101010011011 S
b10010110000000000011010110010100 T
b1101000111000111001110001100101 B
b1101000111000111001110001100101 Q
b10010001000101100010011101111 R
b110000000000101101011101101111 A
b110000000000101101011101101111 M
b10010001000101100010011101111 N
b10110001110000101001011100000111 O
b1100000000110011101011101111110 P
b1001011001111111101110000010011 .
b1001011001111111101110000010011 I
b10010110000000000011010110010100 J
b1101010000101010101011000011011 K
b1011101001111111100110010010111 L
b1001 >
b10010001000101100010011101111 +
b10110001110000101001011100000111 ,
b1100000000110011101011101111110 -
b11001001110011111001010111011100 /
b10010110000000000011010110010100 0
b1101010000101010101011000011011 1
b1011101001111111100110010010111 2
b10101001010010111110011000100110 3
1#
#10000
b10011000111001100111001111010100 E
b11100111110111110010011111010101 D
0#
#10500
b100100001100011000010110111110 @
b100100001100011000010110111110 G
b1010 H
b10100111101011100101011111111001 C
b10100111101011100101011111111001 S
b10110001101011101011110110110001 T
b10101011000100111100011011000101 B
b10101011000100111100011011000101 Q
b10000000110001011001101110101001 R
b10010000110000101001011110101111 A
b10010000110000101001011110101111 M
b10000000110001011001101110101001 N
b10010001000101100010011101111 O
b10110001110000101001011100000111 P
b11011010000100010111011110011010 .
b11011010000100010111011110011010 I
b10110001101011101011110110110001 J
b10010110000000000011010110010100 K
b1101010000101010101011000011011 L
b1010 >
b10000000110001011001101110101001 +
b10010001000101100010011101111 ,
b10110001110000101001011100000111 -
b1100000000110011101011101111110 /
b10110001101011101011110110110001 0
b10010110000000000011010110010100 1
b1101010000101010101011000011011 2
b1011101001111111100110010010111 3
1#
#11000
b111011110101100101111001110100 E
b11001100010010000111101000 D
0#
#11500
b1010101000011000111110111000011 @
b1010101000011000111110111000011 G
b1011 H
b10000001111011111000110001011 C
b10000001111011111000110001011 S
b1100011010010101111100101100110 T
b10011001000010110100011010111 B
b10011001000010110100011010111 Q
b111111000001111000000001011100 R
b10010000001111000000011101101 A
b10010000001111000000011101101 M
b111111000001111000000001011100 N
b10000000110001011001101110101001 O
b10010001000101100010011101111 P
b10110101000010101011110110110000 .
b10110101000010101011110110110000 I
b1100011010010101111100101100110 J
b10110001101011101011110110110001 K
b10010110000000000011010110010100 L
b1011 >
b111111000001111000000001011100 +
b10000000110001011001101110101001 ,
b10010001000101100010011101111 -
b10110001110000101001011100000111 /
b1100011010010101111100101100110 0
b10110001101011101011110110110001 1
b10010110000000000011010110010100 2
b1101010000101010101011000011011 3
1#
#12000
b100101001010001110100111000100 E
b10000100011010101000001100011001 D
0#
#12500
b1110010101111100101110101110100 @
b1110010101111100101110101110100 G
b1100 H
b11010010010100110110000111010000 C
b11010010010100110110000111010000 S
b110110001011010001101000100000 T
b1000001001110101110000100001010 B
b1000001001110101110000100001010 Q
b10101001100100110110110011011101 R
b10101001100001111000100011011101 A
b10101001100001111000100011011101 M
b10101001100100110110110011011101 N
b111111000001111000000001011100 O
b10000000110001011001101110101001 P
b10100011100010101011110110110001 .
b10100011100010101011110110110001 I
b110110001011010001101000100000 J
b1100011010010101111100101100110 K
b10110001101011101011110110110001 L
b1100 >
b10101001100100110110110011011101 +
b111111000001111000000001011100 ,
b10000000110001011001101110101001 -
b10010001000101100010011101111 /
b110110001011010001101000100000 0
b1100011010010101111100101100110 1
b10110001101011101011110110110001 2
b10010110000000000011010110010100 3
1#
#13000
b11101010110000100110100111100111 E
b1111110100111001011001010001001 D
0#
#13500
b10000000110111101011000111111110 @
b10000000110111101011000111111110 G
b1101 H
b1010010111010110101011001111011 C
b1010010111010110101011001111011 S
b10010000101111110111011101111000 T
b10000101101001010100110001000001 B
b10000101101001010100110001000001 Q
b1101001010111110001110001110000 R
b101001000101110000110001011100 A
b101001000101110000110001011100 M
b1101001010111110001110001110000 N
b10101001100100110110110011011101 O
b111111000001111000000001011100 P
b1110011011011011001101000100110 .
b1110011011011011001101000100110 I
b10010000101111110111011101111000 J
b110110001011010001101000100000 K
b1100011010010101111100101100110 L
b1101 >
b1101001010111110001110001110000 +
b10101001100100110110110011011101 ,
b111111000001111000000001011100 -
b10000000110001011001101110101001 /
b10010000101111110111011101111000 0
b110110001011010001101000100000 1
b1100011010010101111100101100110 2
b10110001101011101011110110110001 3
1#
#14000
b10101110101111000101100010011101 E
b11111000111001100110000001010000 D
0#
#14500
b10011011110111000000011010100111 @
b10011011110111000000011010100111 G
b1110 H
b1001111001101000110011000101100 C
b1001111001101000110011000101100 S
b1111001101010111111101111111001 T
b100100011001100010010110110000 B
b100100011001100010010110110000 Q
b10100111101000101011100011101101 R
b10101001100100110011110011111101 A
b10101001100100110011110011111101 M
b10100111101000101011100011101101 N
b1101001010111110001110001110000 O
b10101001100100110110110011011101 P
b10110101011110111001101111000 .
b10110101011110111001101111000 I
b1111001101010111111101111111001 J
b10010000101111110111011101111000 K
b110110001011010001101000100000 L
b1110 >
b10100111101000101011100011101101 +
b1101001010111110001110001110000 ,
b10101001100100110110110011011101 -
b111111000001111000000001011100 /
b1111001101010111111101111111001 0
b10010000101111110111011101111000 1
b110110001011010001101000100000 2
b1100011010010101111100101100110 3
1#
#15000
b11001101111110010110001010101101 E
b1100101000010101101100110110001 D
0#
#15500
b11000001100110111111000101110100 @
b11000001100110111111000101110100 G
b1111 H
b100000 F
b1111110000010011100110111110001 C
b1111110000010011100110111110001 S
b10100100000100100101101000001101 T
b1111110110000011110111111111010 B
b1111110110000011110111111111010 Q
b110011000001000011110001011110 R
b100011000001100011110001111100 A
b100011000001100011110001111100 M
b110011000001000011110001011110 N
b10100111101000101011100011101101 O
b1101001010111110001110001110000 P
b110000101011110111111101111001 .
b110000101011110111111101111001 I
b10100100000100100101101000001101 J
b1111001101010111111101111111001 K
b10010000101111110111011101111000 L
b1111 >
b110011000001000011110001011110 +
b10100111101000101011100011101101 ,
b1101001010111110001110001110000 -
b10101001100100110110110011011101 /
b10100100000100100101101000001101 0
b1111001101010111111101111111001 1
b10010000101111110111011101111000 2
b110110001011010001101000100000 3
1#
#16000
b10100001110010000010110001110110 E
b10100110100000100101100100011110 D
0#
#16500
b11100100100110110110100111000001 @
b11100100100110110110100111000001 G
b10000 H
b1010101011000011001011001100101 F
b1011000110010001010100000000111 C
b1011000110010001010100000000111 S
b1010000000101011100010111111011 T
b10100101001101011001000010000 B
b10100101001101011001000010000 Q
b1001000010010101000010110010100 R
b100011000000101011110011011100 A
b100011000000101011110011011100 M
b1001000010010101000010110010100 N
b110011000001000011110001011110 O
b10100111101000101011100011101101 P
b101001101110100111101000001001 .
b101001101110100111101000001001 I
b1010000000101011100010111111011 J
b10100100000100100101101000001101 K
b1111001101010111111101111111001 L
b10000 >
b1001000010010101000010110010100 +
b110011000001000011110001011110 ,
b10100111101000101011100011101101 -
b1101001010111110001110001110000 /
b1010000000101011100010111111011 0
b10100100000100100101101000001101 1
b1111001101010111111101111111001 2
b10010000101111110111011101111000 3
1#
#17000
b110111101010010110111011101100 E
b1001101001111111001100110101110 D
0#
#17500
b11101111101111100100011110000110 @
b11101111101111100100011110000110 G
b10001 H
b10000000000101000000000000000000 F
b11110110010101111010011001010101 C
b11110110010101111010011001010101 S
b10110110100111101011011000011110 T
b1000001110011000000111101111101 B
b1000001110011000000111101111101 Q
b10000100111010010000100010011010 R
b10010000000110010011110 A
b10010000000110010011110 M
b10000100111010010000100010011010 N
b1001000010010101000010110010100 O
b110011000001000011110001011110 P
b10000000101001100110000011011 .
b10000000101001100110000011011 I
b10110110100111101011011000011110 J
b1010000000101011100010111111011 K
b10100100000100100101101000001101 L
b10001 >
b10000100111010010000100010011010 +
b1001000010010101000010110010100 ,
b110011000001000011110001011110 -
b10100111101000101011100011101101 /
b10110110100111101011011000011110 0
b1010000000101011100010111111011 1
b10100100000100100101101000001101 2
b1111001101010111111101111111001 3
1#
#18000
b1000010000101000001110000011011 E
b11101111111010101011010111101111 D
0#
#18500
b1111110000011001110111000110 @
b1111110000011001110111000110 G
b10010 H
b11111001111010110101100001111001 F
b1101111011110111010101001011101 C
b1101111011110111010101001011101 S
b10010111100011010110111011011100 T
b11100111011001100001001110110011 B
b11100111011001100001001110110011 Q
b110001111111101101001000001010 R
b111010101000000010011010 A
b111010101000000010011010 M
b110001111111101101001000001010 N
b10000100111010010000100010011010 O
b1001000010010101000010110010100 P
b11010110100111001010011100111111 .
b11010110100111001010011100111111 I
b10010111100011010110111011011100 J
b10110110100111101011011000011110 K
b1010000000101011100010111111011 L
b10010 >
b110001111111101101001000001010 +
b10000100111010010000100010011010 ,
b1001000010010101000010110010100 -
b110011000001000011110001011110 /
b10010111100011010110111011011100 0
b10110110100111101011011000011110 1
b1010000000101011100010111111011 2
b10100100000100100101101000001101 3
1#
#19000
b11101000010100001001010001001101 E
b11110011110101111010000111101000 D
0#
#19500
b100100000011001010000111001100 @
b100100000011001010000111001100 G
b10011 H
b10000000001000000101010100001000 F
b10111101101100001001011100010001 C
b10111101101100001001011100010001 S
b100110110110111101111001000110 T
b1100110011111000011101110111100 B
b1100110011111000011101110111100 Q
b11011100001010000011011000110101 R
b10010100111010000001001000011010 A
b10010100111010000001001000011010 M
b11011100001010000011011000110101 N
b110001111111101101001000001010 O
b10000100111010010000100010011010 P
b10010110100011010110111001011100 .
b10010110100011010110111001011100 I
b100110110110111101111001000110 J
b10010111100011010110111011011100 K
b10110110100111101011011000011110 L
b10011 >
b11011100001010000011011000110101 +
b110001111111101101001000001010 ,
b10000100111010010000100010011010 -
b1001000010010101000010110010100 /
b100110110110111101111001000110 0
b10010111100011010110111011011100 1
b10110110100111101011011000011110 2
b1010000000101011100010111111011 3
1#
#20000
b11111011011001000100110111010110 E
b1001000100000001100001000111100 D
0#
#20500
b101101111010010010110001101111 @
b101101111010010010110001101111 G
b10100 H
b11000111000011011011100100011110 F
b11011101111100101101110000111111 C
b11011101111100101101110000111111 S
b10010000110010110100011111010000 T
b10000100001010110001001000100011 B
b10000100001010110001001000100011 Q
b1000011111001010001000000010010 R
b1010001111011000001001000010010 A
b1010001111011000001001000010010 M
b1000011111001010001000000010010 N
b11011100001010000011011000110101 O
b110001111111101101001000001010 P
b111110011110110111001001100 .
b111110011110110111001001100 I
b10010000110010110100011111010000 J
b100110110110111101111001000110 K
b10010111100011010110111011011100 L
b10100 >
b1000011111001010001000000010010 +
b11011100001010000011011000110101 ,
b110001111111101101001000001010 -
b10000100111010010000100010011010 /
b10010000110010110100011111010000 0
b100110110110111101111001000110 1
b10010111100011010110111011011100 2
b10110110100111101011011000011110 3
1#
#21000
b11010110000101110010010000110101 E
b10010001010101111110011000110110 D
0#
#21500
b1001010011101001000010010101010 @
b1001010011101001000010010101010 G
b10101 H
b100000000001010101100000000001 F
b10111010001011001010001110101101 C
b10111010001011001010001110101101 S
b10110010000001110111011010000 T
b110110101010010101010001111111 B
b110110101010010101010001111111 Q
b1100111011011110000101001101011 R
b1000111011011010001001000110011 A
b1000111011011010001001000110011 M
b1100111011011110000101001101011 N
b1000011111001010001000000010010 O
b11011100001010000011011000110101 P
b110000110110110101011011010110 .
b110000110110110101011011010110 I
b10110010000001110111011010000 J
b10010000110010110100011111010000 K
b100110110110111101111001000110 L
b10101 >
b1100111011011110000101001101011 +
b1000011111001010001000000010010 ,
b11011100001010000011011000110101 -
b110001111111101101001000001010 /
b10110010000001110111011010000 0
b10010000110010110100011111010000 1
b100110110110111101111001000110 2
b10010111100011010110111011011100 3
1#
#22000
b1111110000101100110011010110010 E
b11101101000011110100011000001010 D
0#
#22500
b1011100101100001010100111011100 @
b1011100101100001010100111011100 G
b10110 H
b1101011100111010111100000101001 F
b11010101111100111101001110101100 C
b11010101111100111101001110101100 S
b11111000011100001100000010100 T
b11101001100110001100001110101110 B
b11101001100110001100001110101110 Q
b1101011001001011010110010111100 R
b1100011011001010000100000111010 A
b1100011011001010000100000111010 M
b1101011001001011010110010111100 N
b1100111011011110000101001101011 O
b1000011111001010001000000010010 P
b10010110110000010100111111010000 .
b10010110110000010100111111010000 I
b11111000011100001100000010100 J
b10110010000001110111011010000 K
b10010000110010110100011111010000 L
b10110 >
b1101011001001011010110010111100 +
b1100111011011110000101001101011 ,
b1000011111001010001000000010010 -
b11011100001010000011011000110101 /
b11111000011100001100000010100 0
b10110010000001110111011010000 1
b10010000110010110100011111010000 2
b100110110110111101111001000110 3
1#
#23000
b1001100111111011100101111101000 E
b1011011110111110010001111000111 D
0#
#23500
b1110110111110011000100011011010 @
b1110110111110011000100011011010 G
b10111 H
b1011100011010100100101110111001 F
b11001100110010111110001110010000 C
b11001100110010111110001110010000 S
b111000000001110101100111111100 T
b11100100111101001100001110101111 B
b11100100111101001100001110101111 Q
b10101000110111001110111110101111 R
b1101011011011011010111010101111 A
b1101011011011011010111010101111 M
b10101000110111001110111110101111 N
b1101011001001011010110010111100 O
b1100111011011110000101001101011 P
b11110010001101011111000010100 .
b11110010001101011111000010100 I
b111000000001110101100111111100 J
b11111000011100001100000010100 K
b10110010000001110111011010000 L
b10111 >
b10101000110111001110111110101111 +
b1101011001001011010110010111100 ,
b1100111011011110000101001101011 -
b1000011111001010001000000010010 /
b111000000001110101100111111100 0
b11111000011100001100000010100 1
b10110010000001110111011010000 2
b10010000110010110100011111010000 3
1#
#24000
b1010000011000100111001001011110 E
b1001111010000011011111000000111 D
0#
#24500
b10011000001111100101000101010010 @
b10011000001111100101000101010010 G
b11000 H
b10010011000111110111111111100011 F
b110110000110011111001100101000 C
b110110000110011111001100101000 S
b10010011001001101100111000011001 T
b1110100000001000110011101000110 B
b1110100000001000110011101000110 Q
b10011111101001000011000001100101 R
b10101011101001001010110010101101 A
b10101011101001001010110010101101 M
b10011111101001000011000001100101 N
b10101000110111001110111110101111 O
b1101011001001011010110010111100 P
b11100000011100101100000011100 .
b11100000011100101100000011100 I
b10010011001001101100111000011001 J
b111000000001110101100111111100 K
b11111000011100001100000010100 L
b11000 >
b10011111101001000011000001100101 +
b10101000110111001110111110101111 ,
b1101011001001011010110010111100 -
b1100111011011110000101001101011 /
b10010011001001101100111000011001 0
b111000000001110101100111111100 1
b11111000011100001100000010100 2
b10110010000001110111011010000 3
1#
#25000
b11111101010010001001111110011 E
b10010011110001110000101101001001 D
0#
#25500
b10101000001100011100011001101101 @
b10101000001100011100011001101101 G
b11001 H
b1100110101001111111011110100011 F
b11111110011110010110010011101001 C
b11111110011110010110010011101001 S
b11111011001101100001010110110100 T
b10101010001010110111010000010 B
b10101010001010110111010000010 Q
b10110011011100000001111100111100 R
b10111011111101000011111100101101 A
b10111011111101000011111100101101 M
b10110011011100000001111100111100 N
b10011111101001000011000001100101 O
b10101000110111001110111110101111 P
b10010011001001110100110001011000 .
b10010011001001110100110001011000 I
b11111011001101100001010110110100 J
b10010011001001101100111000011001 K
b111000000001110101100111111100 L
b11001 >
b10110011011100000001111100111100 +
b10011111101001000011000001100101 ,
b10101000110111001110111110101111 -
b1101011001001011010110010111100 /
b11111011001101100001010110110100 0
b10010011001001101100111000011001 1
b111000000001110101100111111100 2
b11111000011100001100000010100 3
1#
#26000
b11010001001110011010110110101111 E
b10111111100010001000011101100101 D
0#
